Differential Abundance Analysis by Consensus • dar
…
## Results
cool(da_results)
#> ℹ Bake for count_cutoff = 2
#> # A tibble: 124 × 2
#>    taxa_id taxa                   
#>    <chr>   <chr>                  
#>  1 Otu_63  Bacteroides_plebeius   
#>  2 Otu_216 Clostridium_sp_CAG_632 
#>  3 Otu_441 Brachyspira_sp_CAG_700 
#>  4 Otu_108 Prevotella_sp_CAG_520  
#>  5 Otu_257 Butyrivibrio_sp_CAG_318
#>  6 Otu_104 Prevotella_sp_CAG_1092 
#>  7 Otu_69  Bacteroides_sp_CAG_530 
#>  8 Otu_102 Prevotella_sp_AM42_24  
#>  9 Otu_159 Lactobacillus_ruminis  
#> 10 Otu_117 Alistipes_inops        
#> # ℹ 114 more rows
…
