Define consensus strategies from a Recipe — bake • dar
…
    Value

    An object of class PrepRecipe

    Examples

data(test_prep_rec)
rec <- test_prep_rec

## Default bake extracts common OTUs in all DA tested methods 
## (In this case the Recipe contains 3 methods)
res <- bake(rec)
cool(res)
#> ℹ Bake for count_cutoff = 3
#> # A tibble: 23 × 2
#>    taxa_id taxa           
#>    <chr>   <chr>          
#>  1 Otu_96  Prevotella     
#>  2 Otu_340 Holdemanella   
#>  3 Otu_332 Catenibacterium
#>  4 Otu_119 Alistipes      
#>  5 Otu_45  Slackia        
#>  6 Otu_82  Barnesiella    
#>  7 Otu_78  Bacteroides    
#>  8 Otu_88  Odoribacter    
#>  9 Otu_259 Coprococcus    
#> 10 Otu_35  Collinsella    
#> # ℹ 13 more rows
…
## We can use the parameter `cout_cutoff` to for example select those OTUs
## shared with at least two methods
res <- bake(rec, count_cutoff = 2)
cool(res)
#> ℹ Bake for count_cutoff = 2
#> # A tibble: 34 × 2
#>    taxa_id taxa           
#>    <chr>   <chr>          
#>  1 Otu_96  Prevotella     
#>  2 Otu_340 Holdemanella   
#>  3 Otu_332 Catenibacterium
#>  4 Otu_119 Alistipes      
#>  5 Otu_45  Slackia        
#>  6 Otu_82  Barnesiella    
#>  7 Otu_78  Bacteroides    
#>  8 Otu_88  Odoribacter    
#>  9 Otu_259 Coprococcus    
#> 10 Otu_35  Collinsella    
#> # ℹ 24 more rows

## Furthermore, we can exclude methods from the consensus strategy with the 
## `exclude` parameter.
res <- bake(rec, exclude = steps_ids(rec, "da")[1])
cool(res)
#> ℹ Bake for count_cutoff = 2
#> ℹ Results from maaslin__ChaSan are excluded
#> # A tibble: 34 × 2
#>    taxa_id taxa                 
#>    <chr>   <chr>                
#>  1 Otu_371 Megasphaera          
#>  2 Otu_361 Phascolarctobacterium
#>  3 Otu_392 Parasutterella       
#>  4 Otu_214 Clostridium          
#>  5 Otu_365 Mitsuokella          
#>  6 Otu_332 Catenibacterium      
#>  7 Otu_34  Olsenella            
#>  8 Otu_119 Alistipes            
#>  9 Otu_397 Bilophila            
#> 10 Otu_407 Anaerobiospirillum   
#> # ℹ 24 more rows

## Finally, we can use the `weights` parameter to weigh each method.
weights <- c(2, 1, 1)
names(weights) <- steps_ids(rec, "da")
res <- bake(rec, weights = weights)
cool(res)
#> ℹ Bake for count_cutoff = 3
#> # A tibble: 34 × 2
#>    taxa_id taxa           
#>    <chr>   <chr>          
#>  1 Otu_96  Prevotella     
#>  2 Otu_340 Holdemanella   
#>  3 Otu_332 Catenibacterium
#>  4 Otu_119 Alistipes      
#>  5 Otu_45  Slackia        
#>  6 Otu_82  Barnesiella    
#>  7 Otu_78  Bacteroides    
#>  8 Otu_88  Odoribacter    
#>  9 Otu_259 Coprococcus    
#> 10 Otu_35  Collinsella    
#> # ℹ 24 more rows
…
