Extract results from defined bake — cool • dar
…
    Value

    tbl_df

    Examples

data(test_prep_rec)

## First we need to add bakes (extraction strategies) to the PrepRecipe.
rec <- bake(test_prep_rec)

## Finally we can extract the results with the cool method
cool(rec)
#> ℹ Bake for count_cutoff = 3
#> # A tibble: 23 × 2
#>    taxa_id taxa           
#>    <chr>   <chr>          
#>  1 Otu_96  Prevotella     
#>  2 Otu_340 Holdemanella   
#>  3 Otu_332 Catenibacterium
#>  4 Otu_119 Alistipes      
#>  5 Otu_45  Slackia        
#>  6 Otu_82  Barnesiella    
#>  7 Otu_78  Bacteroides    
#>  8 Otu_88  Odoribacter    
#>  9 Otu_259 Coprococcus    
#> 10 Otu_35  Collinsella    
#> # ℹ 13 more rows

## By default cool extracts the results of the first bake. If we have more
## bakes we can extract the one that you want with the bake parameter.
rec <- bake(rec, count_cutoff = 1)
cool(rec, 2)
#> ℹ Bake for count_cutoff = 1
#> # A tibble: 88 × 2
#>    taxa_id taxa           
#>    <chr>   <chr>          
#>  1 Otu_96  Prevotella     
#>  2 Otu_102 Prevotella     
#>  3 Otu_340 Holdemanella   
#>  4 Otu_332 Catenibacterium
#>  5 Otu_108 Prevotella     
#>  6 Otu_115 Alistipes      
#>  7 Otu_119 Alistipes      
#>  8 Otu_45  Slackia        
#>  9 Otu_82  Barnesiella    
#> 10 Otu_113 Prevotella     
#> # ℹ 78 more rows
…
