Import steps from json file — import_steps • dar
…
#> 
#> Results:
#> 
#>      ✔ maaslin__ChaSan diff_taxa = 86 
#>      ✔ metagenomeseq__Zlebia diff_taxa = 69 
#>      ✔ deseq__Linzer_torte diff_taxa = 53 
#> 
#>      ℹ 46 taxa are present in all tested methods 
#> 
#> Bakes:
#> 
#>      ◉ 1 -> count_cutoff: NULL, weights: NULL, exclude: NULL, id: bake__Trdelník 
cool(rec)
#> ℹ Bake for count_cutoff = 3
#> # A tibble: 46 × 2
#>    taxa_id taxa                        
#>    <chr>   <chr>                       
#>  1 Otu_96  Prevotella_copri            
#>  2 Otu_102 Prevotella_sp_AM42_24       
#>  3 Otu_340 Holdemanella_biformis       
#>  4 Otu_332 Catenibacterium_mitsuokai   
#>  5 Otu_108 Prevotella_sp_CAG_520       
#>  6 Otu_115 Alistipes_finegoldii        
#>  7 Otu_119 Alistipes_putredinis        
#>  8 Otu_45  Slackia_isoflavoniconvertens
#>  9 Otu_82  Barnesiella_intestinihominis
#> 10 Otu_113 Prevotella_stercorea        
#> # ℹ 36 more rows
…
