Workflow with real data • dar
…
Default results extraction

At this point, we could extract the taxa shared across all methods
using the function bake() to define a default consensus strategy and
then cool() to extract the results.

## Default DA taxa results
results <- 
  bake(da_results) %>% 
  cool()

results
#> # A tibble: 26 × 2
#>    taxa_id taxa                        
#>    <chr>   <chr>                       
#>  1 Otu_44  Gordonibacter_pamelaeae     
#>  2 Otu_45  Slackia_isoflavoniconvertens
#>  3 Otu_48  Bacteroides_clarus          
#>  4 Otu_63  Bacteroides_plebeius        
#>  5 Otu_69  Bacteroides_sp_CAG_530      
#>  6 Otu_78  Bacteroides_uniformis       
#>  7 Otu_82  Barnesiella_intestinihominis
#>  8 Otu_88  Odoribacter_splanchnicus    
#>  9 Otu_96  Prevotella_copri            
#> 10 Otu_101 Prevotella_sp_885           
#> # … with 16 more rows
…
Extract results

To conclude, we can extract the final results using the cool()
function. This function takes a prep-recipe object and the ID of the
bake to be used as input (by default it is 1, but if you have multiple
consensus strategies, you can change it to extract the desired
results).

## Extract results for bake id 1
f_results <- cool(da_results, bake = 1)

f_results
#> # A tibble: 81 × 2
#>    taxa_id taxa                             
#>    <chr>   <chr>                            
#>  1 Otu_13  Bifidobacterium_bifidum          
#>  2 Otu_19  Bifidobacterium_pseudocatenulatum
#>  3 Otu_40  Adlercreutzia_equolifaciens      
#>  4 Otu_41  Asaccharobacter_celatus          
#>  5 Otu_42  Eggerthella_lenta                
#>  6 Otu_44  Gordonibacter_pamelaeae          
#>  7 Otu_45  Slackia_isoflavoniconvertens     
#>  8 Otu_46  Bacteroides_caccae               
#>  9 Otu_47  Bacteroides_cellulosilyticus     
#> 10 Otu_48  Bacteroides_clarus               
#> # … with 71 more rows
…
