Introduction to dar • dar
…
Bake and cool

Now that we have the results we need to extract them, however for this we first need to define a consensus strategy with the bake. For this example we are only interested in those OTUs detected as differentially abundant in the three methods used.

## Number of used methods
count <- steps_ids(da_results, type = "da") %>% length()

## Define the bake 
da_results <- bake(da_results, count_cutoff = count)

Finally we can extract the table with the results using the cool function.

cool(da_results)
#> # A tibble: 100 × 2
#>    taxa_id taxa                        
#>    <chr>   <chr>                       
#>  1 Otu_2   Methanosphaera_stadtmanae   
#>  2 Otu_12  Bifidobacterium_animalis    
#>  3 Otu_15  Bifidobacterium_catenulatum 
#>  4 Otu_34  Olsenella_scatoligenes      
#>  5 Otu_35  Collinsella_aerofaciens     
#>  6 Otu_38  Enorma_massiliensis         
#>  7 Otu_47  Bacteroides_cellulosilyticus
#>  8 Otu_48  Bacteroides_clarus          
#>  9 Otu_63  Bacteroides_plebeius        
#> 10 Otu_69  Bacteroides_sp_CAG_530      
#> # … with 90 more rows
…
